___lwdiv@dividend 53 0 BANK0 1
_MyPriority 38 0 BANK0 1
__Hstringtext14 0 0 ABS 0
__Lstringtext14 0 0 ABS 0
___lwdiv@counter 55 0 BANK0 1
__pstringtext14 115F 0 STRCODE 0
__CFG_WDTCCS$SC 0 0 ABS 0
__S0 800C 0 ABS 0
__S1 152 0 ABS 0
__S2 27F0 0 ABS 0
__end_of_PostTestHarnessService0 D72 0 CODE 0
_GIE 5F 0 ABS 0
_ES_EnQueueFIFO 645 0 CODE 0
__Hintentry 16 0 CODE 0
__Lintentry 4 0 CODE 0
__end_of_ES_PostAll FC3 0 CODE 0
__end_of_BitNum2SetMask 11C1 0 STRCODE 0
__CFG_BOREN$ON 0 0 ABS 0
__pintentry 4 0 CODE 0
__size_of_InitLED 0 0 ABS 0
__end_of_ES_CheckUserEvents E4D 0 CODE 0
__CFG_PWRTE$ON 0 0 ABS 0
__Hstringtext17 0 0 ABS 0
__Lstringtext17 0 0 ABS 0
__pstringtext17 11F9 0 STRCODE 0
_PEIE 5E 0 ABS 0
_N1EN 2C97 0 ABS 0
DB_printf@LineBuffer A0 0 BANK1 1
_T2PR 28D 0 ABS 0
_main 291 0 CODE 0
___sp 20D2 0 STACK 2
btemp 74 0 ABS 0
start 16 0 CODE 0
_puts DEB 0 CODE 0
_TMR_ActiveFlags 33 0 BANK0 1
__end_of_ES_Timer_Init D4F 0 CODE 0
_FieldBuf 47 0 BANK0 1
__end_of_BlinkLED 4 0 CODE 0
_ServDescList 12A6 0 STRCODE 0
_RC1IF 387D 0 ABS 0
__end_of_ES_EnQueueFIFO 6AC 0 CODE 0
__end_of_ES_EnQueueLIFO 5D3 0 CODE 0
_TX1IF 387C 0 ABS 0
DB_printf@i DF 0 BANK1 1
_NCOIF 389C 0 ABS 0
reset_vec 0 0 CODE 0
_T2CON 28E 0 ABS 0
ES_PostAll@i 71 0 COMMON 1
ltemp0 74 0 ABS 0
ttemp0 74 0 ABS 0
wtemp0 74 0 ABS 0
ltemp1 78 0 ABS 0
ttemp1 77 0 ABS 0
wtemp1 76 0 ABS 0
_T2TMR 28C 0 ABS 0
ltemp2 7C 0 ABS 0
ttemp2 7A 0 ABS 0
wtemp2 78 0 ABS 0
ltemp3 76 0 ABS 0
ttemp3 7D 0 ABS 0
wtemp3 7A 0 ABS 0
wtemp4 7C 0 ABS 0
wtemp5 7E 0 ABS 0
__end_of_ES_PostToService F88 0 CODE 0
uitoa@LineBuffer 5F 0 BANK0 1
__Hconfig 800C 0 CONFIG 0
__Lconfig 8007 0 CONFIG 0
DB_printf@Arguments E3 0 BANK1 1
__size_of__HW_PIC15356Init 0 0 ABS 0
__Hstringtext1 0 0 ABS 0
__Lstringtext1 0 0 ABS 0
uitoa@rem 5C 0 BANK0 1
__CFG_WRTSAF$OFF 0 0 ABS 0
__pstringtext1 1181 0 STRCODE 0
?___awmod 51 0 BANK0 1
__CFG_BBSIZE$BB512 0 0 ABS 0
?___lwmod 51 0 BANK0 1
InitTestHarnessService0@ThisEvent 58 0 BANK0 1
__Hbigram 0 0 ABS 0
__size_of_ES_InitQueue 0 0 ABS 0
__Lbigram 0 0 ABS 0
puts@s 5C 0 BANK0 1
__Hram 0 0 ABS 0
__Lram 0 0 ABS 0
_uitoa 3CA 0 CODE 0
_putch D4F 0 CODE 0
_fputc 700 0 CODE 0
__HW_Process_Pending_Ints D81 0 CODE 0
_myIsr 4 0 CODE 0
__CFG_STVREN$ON 0 0 ABS 0
_Ready 2F 0 BANK0 1
__Hstringtext21 0 0 ABS 0
__Lstringtext21 0 0 ABS 0
__HW_ConsoleInit D90 0 CODE 0
_puts$1226 60 0 BANK0 1
?_getchar 51 0 BANK0 1
__pstringtext21 1260 0 STRCODE 0
__Hstringtext7 0 0 ABS 0
__Lstringtext7 0 0 ABS 0
_fputs EEA 0 CODE 0
__pstringtext7 1039 0 STRCODE 0
_ES_InitQueue DB1 0 CODE 0
__Hfunctab 0 0 ENTRY 0
__Lfunctab 0 0 ENTRY 0
putch@data 71 0 COMMON 1
__end_of_putch D59 0 CODE 0
__Hcommon 0 0 ABS 0
__Lcommon 0 0 ABS 0
__Heeprom_data 0 0 EEDATA 3
__Leeprom_data 0 0 EEDATA 3
__Hstringtext24 0 0 ABS 0
__Lstringtext24 0 0 ABS 0
_PIR4bits 710 0 ABS 0
_ES_EventList 1000 0 STRCODE 0
_CCPR2H 311 0 ABS 0
__size_of_RunTestHarnessService0 0 0 ABS 0
__pstringtext24 1283 0 STRCODE 0
_NCO1IE 38EC 0 ABS 0
_NCO1IF 389C 0 ABS 0
___int_sp 2461 0 STACK 2
__CFG_CLKOUTEN$OFF 0 0 ABS 0
_RC1REG 119 0 ABS 0
_ANSELC 1F4E 0 ABS 0
_TX1REG 11A 0 ABS 0
__CFG_WDTCPS$WDTCPS_31 0 0 ABS 0
DB_printf@pString E1 0 BANK1 1
?___lwdiv 51 0 BANK0 1
_Queue0 140 0 BANK2 1
__Habs1 0 0 ABS 0
__Labs1 0 0 ABS 0
__size_of_ES_EnQueueFIFO 0 0 ABS 0
_INTCON B 0 ABS 0
__Hsfr0 0 0 ABS 0
uitoa@base 5A 0 BANK0 1
__Lsfr0 0 0 ABS 0
__size_of_ES_Timer_Init 0 0 ABS 0
__size_of_ES_EnQueueLIFO 0 0 ABS 0
__Hsfr1 0 0 ABS 0
__Lsfr1 0 0 ABS 0
__Hsfr2 0 0 ABS 0
__Lsfr2 0 0 ABS 0
__CFG_RSTOSC$HFINT32 0 0 ABS 0
__size_of_getchar 0 0 ABS 0
__size_of__HW_Process_Pending_Ints 0 0 ABS 0
__Hstringtext27 0 0 ABS 0
__Hsfr3 0 0 ABS 0
__Lstringtext27 0 0 ABS 0
__Lsfr3 0 0 ABS 0
_RC1PPS 1F21 0 ABS 0
__Hsfr4 0 0 ABS 0
_RC6PPS 1F26 0 ABS 0
__Lsfr4 0 0 ABS 0
__Hsfr5 0 0 ABS 0
__Lsfr5 0 0 ABS 0
__pstringtext27 129A 0 STRCODE 0
__end_of_Start_PushToTalk D38 0 CODE 0
__Hsfr6 0 0 ABS 0
__size_of_fputc 0 0 ABS 0
__Lsfr6 0 0 ABS 0
__Hsfr7 0 0 ABS 0
__Lsfr7 0 0 ABS 0
__Hsfr8 0 0 ABS 0
__Lsfr8 0 0 ABS 0
__Hsfr9 0 0 ABS 0
__Lsfr9 0 0 ABS 0
__size_of_ES_Timer_InitTimer 0 0 ABS 0
ES_GetMSBitSet@LoopCntr 55 0 BANK0 1
fputc@c 51 0 BANK0 1
___stackhi 27EF 0 ABS 0
__size_of_BlinkLED 0 0 ABS 0
fputs@c 59 0 BANK0 1
uitoa@i 58 0 BANK0 1
__CFG_PPS1WAY$OFF 0 0 ABS 0
fputs@i 5A 0 BANK0 1
__size_of_ES_Timer_Tick_Resp 0 0 ABS 0
__end_of___awmod 700 0 CODE 0
DB_printf@pBuffer E4 0 BANK1 1
uitoa@s 5E 0 BANK0 1
__end_of_ES_DeQueue 3CA 0 CODE 0
__Hcode 0 0 ABS 0
__Lcode 0 0 ABS 0
ES_PostAll@ThisEvent 57 0 BANK0 1
__end_of__HW_Process_Pending_Ints D90 0 CODE 0
__size_of___lbmod 0 0 ABS 0
fputs@s 56 0 BANK0 1
_Nybble2MSBitNum 1242 0 STRCODE 0
__size_of_ES_Initialize 0 0 ABS 0
_ES_EnQueueLIFO 55D 0 CODE 0
_ES_Run 5D3 0 CODE 0
?_fputc 51 0 BANK0 1
__HcstackBANK0 0 0 ABS 0
__LcstackBANK0 0 0 ABS 0
__pcstackBANK0 51 0 BANK0 1
___awmod@sign 56 0 BANK0 1
__Hstringtext2 0 0 ABS 0
__Lstringtext2 0 0 ABS 0
__Hinit 16 0 CODE 0
__Linit 16 0 CODE 0
___wmul E0A 0 CODE 0
__pstringtext2 11A1 0 STRCODE 0
__end_of_InitLED 3 0 CODE 0
_ES_GetMSBitSet 749 0 CODE 0
__end_of_main 332 0 CODE 0
_DB_printf 34 0 CODE 0
_DeferralQueue 3B 0 BANK0 1
__end_of_ES_PostToServiceLIFO F4E 0 CODE 0
__Htext 0 0 ABS 0
__Ltext 0 0 ABS 0
?_fputs 56 0 BANK0 1
___wmul@multiplier 51 0 BANK0 1
__CFG_WDTCWS$WDTCWS_7 0 0 ABS 0
__HdataBANK0 0 0 ABS 0
__LdataBANK0 0 0 ABS 0
__CFG_LVP$ON 0 0 ABS 0
__pdataBANK0 6F 0 BANK0 1
__end_of_ES_GetMSBitSet 78B 0 CODE 0
end_of_initialization 2D 0 CODE 0
__Hstringtext12 0 0 ABS 0
__Lstringtext12 0 0 ABS 0
__pstringtext12 111B 0 STRCODE 0
__Hstringtext8 0 0 ABS 0
__CFG_FEXTOSC$OFF 0 0 ABS 0
__Lstringtext8 0 0 ABS 0
__pstringtext8 106F 0 STRCODE 0
__end_of_Check4Keystroke DEB 0 CODE 0
__size_of_puts 0 0 ABS 0
___stacklo 20D2 0 ABS 0
ES_RecallEvents@WereEventsPulled 66 0 BANK0 1
___wmul@multiplicand 53 0 BANK0 1
__Hsfr10 0 0 ABS 0
__Lsfr10 0 0 ABS 0
__Hsfr20 0 0 ABS 0
__Lsfr20 0 0 ABS 0
__Hsfr30 0 0 ABS 0
__Hsfr11 0 0 ABS 0
__size_of_DB_printf 0 0 ABS 0
__Lsfr30 0 0 ABS 0
__Lsfr11 0 0 ABS 0
__Hsfr40 0 0 ABS 0
__Hsfr21 0 0 ABS 0
__Lsfr40 0 0 ABS 0
__Lsfr21 0 0 ABS 0
__Hsfr50 0 0 ABS 0
__Hsfr31 0 0 ABS 0
__Hsfr12 0 0 ABS 0
__end_of_DB_printf 19F 0 CODE 0
__Lsfr50 0 0 ABS 0
__Lsfr31 0 0 ABS 0
__Lsfr12 0 0 ABS 0
__Hsfr60 0 0 ABS 0
__Hsfr41 0 0 ABS 0
__Hsfr22 0 0 ABS 0
__Lsfr60 0 0 ABS 0
__Lsfr41 0 0 ABS 0
__Lsfr22 0 0 ABS 0
__Hsfr51 0 0 ABS 0
__Hsfr32 0 0 ABS 0
__Hsfr13 0 0 ABS 0
__Lsfr51 0 0 ABS 0
__Lsfr32 0 0 ABS 0
__Lsfr13 0 0 ABS 0
__Hsfr61 0 0 ABS 0
__Hsfr42 0 0 ABS 0
__Hsfr23 0 0 ABS 0
__Lsfr61 0 0 ABS 0
__Lsfr42 0 0 ABS 0
__Lsfr23 0 0 ABS 0
__Hsfr52 0 0 ABS 0
__Hsfr33 0 0 ABS 0
__Hsfr14 0 0 ABS 0
__Lsfr52 0 0 ABS 0
__Lsfr33 0 0 ABS 0
__Lsfr14 0 0 ABS 0
__Hsfr62 0 0 ABS 0
__Hsfr43 0 0 ABS 0
__Hsfr24 0 0 ABS 0
__Lsfr62 0 0 ABS 0
__Lsfr43 0 0 ABS 0
__Lsfr24 0 0 ABS 0
__Hsfr53 0 0 ABS 0
__Hsfr34 0 0 ABS 0
__Hsfr15 0 0 ABS 0
__Hstringtext15 0 0 ABS 0
__Lsfr53 0 0 ABS 0
__Lsfr34 0 0 ABS 0
__Lsfr15 0 0 ABS 0
__Lstringtext15 0 0 ABS 0
DB_printf@u DD 0 BANK1 1
__Hsfr63 0 0 ABS 0
__Hsfr44 0 0 ABS 0
__Hsfr25 0 0 ABS 0
__Lsfr63 0 0 ABS 0
__Lsfr44 0 0 ABS 0
__Lsfr25 0 0 ABS 0
__Hsfr54 0 0 ABS 0
__Hsfr35 0 0 ABS 0
__Hsfr16 0 0 ABS 0
__Lsfr54 0 0 ABS 0
__Lsfr35 0 0 ABS 0
__Lsfr16 0 0 ABS 0
__pstringtext15 11C1 0 STRCODE 0
__Hsfr45 0 0 ABS 0
__Hsfr26 0 0 ABS 0
RunTestHarnessService0@ThisEvent 6A 0 BANK0 1
__Lsfr45 0 0 ABS 0
__end_of_fputs F15 0 CODE 0
__Lsfr26 0 0 ABS 0
__size_of_putch 0 0 ABS 0
__Hsfr55 0 0 ABS 0
__Hsfr36 0 0 ABS 0
__Hsfr17 0 0 ABS 0
__Lsfr55 0 0 ABS 0
__Lsfr36 0 0 ABS 0
__Lsfr17 0 0 ABS 0
__Hsfr46 0 0 ABS 0
__Hsfr27 0 0 ABS 0
__Lsfr46 0 0 ABS 0
__Lsfr27 0 0 ABS 0
__Hsfr56 0 0 ABS 0
__Hsfr37 0 0 ABS 0
__Hsfr18 0 0 ABS 0
__Lsfr56 0 0 ABS 0
__Lsfr37 0 0 ABS 0
__Lsfr18 0 0 ABS 0
__Hsfr47 0 0 ABS 0
__Hsfr28 0 0 ABS 0
__Lsfr47 0 0 ABS 0
__Lsfr28 0 0 ABS 0
__Hsfr57 0 0 ABS 0
__Hsfr38 0 0 ABS 0
__Hsfr19 0 0 ABS 0
__Lsfr57 0 0 ABS 0
__Lsfr38 0 0 ABS 0
__size_of_Start_PushToTalk 0 0 ABS 0
__Lsfr19 0 0 ABS 0
__Hsfr48 0 0 ABS 0
__Hsfr29 0 0 ABS 0
__Lsfr48 0 0 ABS 0
__Lsfr29 0 0 ABS 0
__Hsfr58 0 0 ABS 0
__Hsfr39 0 0 ABS 0
__Lsfr58 0 0 ABS 0
__Lsfr39 0 0 ABS 0
__Hsfr49 0 0 ABS 0
__Lsfr49 0 0 ABS 0
__end_of_InitPWM E97 0 CODE 0
__Hsfr59 0 0 ABS 0
__Lsfr59 0 0 ABS 0
_TRISCbits 14 0 ABS 0
__Hstrings 0 0 ABS 0
_T2CONbits 28E 0 ABS 0
__Lstrings 0 0 ABS 0
ES_GetMSBitSet@Val2Check 51 0 BANK0 1
__Hstringtext18 0 0 ABS 0
__Lstringtext18 0 0 ABS 0
__pstringtext18 1213 0 STRCODE 0
__size_of_ES_Run 0 0 ABS 0
_NCO1CLK 593 0 ABS 0
__end_of__HW_Timer_Init DB1 0 CODE 0
main@ErrorType E8 0 BANK1 1
_SP1BRGL 11B 0 ABS 0
_InitLED 2 0 CODE 0
__end_of_ES_EventList 1002 0 STRCODE 0
InitTestHarnessService0@Priority 57 0 BANK0 1
__Hbank0 0 0 ABS 0
__Lbank0 0 0 ABS 0
__Hbank1 0 0 ABS 0
__Lbank1 0 0 ABS 0
__Hbank2 0 0 ABS 0
__Lbank2 0 0 ABS 0
_TickCount 3A 0 BANK0 1
__Hbank3 0 0 ABS 0
__Lbank3 0 0 ABS 0
___latbits 3 0 ABS 0
RunTestHarnessService0@DeferredChar 6F 0 BANK0 1
__Hbank4 0 0 ABS 0
__Lbank4 0 0 ABS 0
__Hbank5 0 0 ABS 0
__Lbank5 0 0 ABS 0
__Hpowerup 0 0 CODE 0
__Lpowerup 0 0 CODE 0
ES_Timer_InitTimer@Num 71 0 COMMON 1
__Hbank6 0 0 ABS 0
__Lbank6 0 0 ABS 0
__Hbank7 0 0 ABS 0
__Lbank7 0 0 ABS 0
_ES_PostAll F88 0 CODE 0
__Hbank8 0 0 ABS 0
__Lbank8 0 0 ABS 0
__Hbank9 0 0 ABS 0
ES_DeQueue@NumLeft 5D 0 BANK0 1
__Lbank9 0 0 ABS 0
__end_of_Nybble2MSBitNum 1251 0 STRCODE 0
__ptext1 D3C 0 CODE 0
__ptext2 D90 0 CODE 0
__size_of__HW_SysTickIntHandler 0 0 ABS 0
__ptext3 E71 0 CODE 0
_ES_RecallEvents E97 0 CODE 0
__ptext4 5D3 0 CODE 0
__ptext5 D81 0 CODE 0
_InitPWM E71 0 CODE 0
__ptext6 4DE 0 CODE 0
__size_of_ES_PostAll 0 0 ABS 0
__ptext7 D65 0 CODE 0
__HcstackBANK1 0 0 ABS 0
__LcstackBANK1 0 0 ABS 0
__ptext8 749 0 CODE 0
__ptext9 19F 0 CODE 0
__pcstackBANK1 A0 0 BANK1 1
_ES_Timer_Init D46 0 CODE 0
__Hclrtext 0 0 ABS 0
__Lclrtext 0 0 ABS 0
__Hstringtext3 0 0 ABS 0
__Lstringtext3 0 0 ABS 0
__pstringtext3 1242 0 STRCODE 0
ES_PostToServiceLIFO@WhichService 63 0 BANK0 1
__end_of_myIsr 16 0 CODE 0
__size_of_Check4Keystroke 0 0 ABS 0
ES_Run@HighestPrior 6E 0 BANK0 1
_EventQueues 12AE 0 STRCODE 0
__end_of_EventQueues 12B0 0 STRCODE 0
__Hstringtext22 0 0 ABS 0
__Lstringtext22 0 0 ABS 0
ES_Timer_InitTimer@NewTime 51 0 BANK0 1
__end_of_ES_RecallEvents EBF 0 CODE 0
__pstringtext22 126C 0 STRCODE 0
__Hstringtext9 0 0 ABS 0
__end_of__initialization 2D 0 CODE 0
__end_of_InitTestHarnessService0 EEA 0 CODE 0
__Lstringtext9 0 0 ABS 0
_CCP2CONbits 312 0 ABS 0
__pstringtext9 10A1 0 STRCODE 0
__end_of___lwdiv 1000 0 CODE 0
ES_Timer_Tick_Resp@NewEvent 2C 0 BANK0 1
__end_of__HW_ConsoleInit D9F 0 CODE 0
_ES_DeQueue 332 0 CODE 0
__Hstringtext25 0 0 ABS 0
__Lstringtext25 0 0 ABS 0
__pstringtext25 128C 0 STRCODE 0
_ES_Timer_Tick_Resp 4DE 0 CODE 0
__size_of_ES_RecallEvents 0 0 ABS 0
__end_of_getchar D81 0 CODE 0
_RunTestHarnessService0 19F 0 CODE 0
_Stop_PushToTalk D38 0 CODE 0
ES_RecallEvents@WhichService 65 0 BANK0 1
fputc@fp 53 0 BANK0 1
__Hidloc 0 0 IDLOC 0
__Lidloc 0 0 IDLOC 0
__Hstringtext28 0 0 ABS 0
__Lstringtext28 0 0 ABS 0
fputs@fp 58 0 BANK0 1
__Hstack 27F0 0 STACK 2
___lbmod E4D 0 CODE 0
__Lstack 20D2 0 STACK 2
__size_of_Stop_PushToTalk 0 0 ABS 0
__pstringtext28 12A1 0 STRCODE 0
__size_of_ES_DeQueue 0 0 ABS 0
___awmod 6AC 0 CODE 0
___lwmod 7CA 0 CODE 0
ES_DeQueue@pReturnEvent 59 0 BANK0 1
__Hspace_0 800C 0 ABS 0
__Lspace_0 0 0 ABS 0
ES_Initialize@i 71 0 COMMON 1
ES_InitQueue@pThisQueue 54 0 BANK0 1
_getchar D72 0 CODE 0
__Hspace_1 152 0 ABS 0
__Lspace_1 0 0 ABS 0
__Hspace_2 27F0 0 ABS 0
__Lspace_2 0 0 ABS 0
?___wmul 51 0 BANK0 1
__Hcinit 34 0 CODE 0
__Lcinit 18 0 CODE 0
_ES_CheckUserEvents E2A 0 CODE 0
ES_InitQueue@BlockSize 53 0 BANK0 1
?_DB_printf 60 0 BANK0 1
__Hspace_3 0 0 ABS 0
___lwdiv FC3 0 CODE 0
__CFG_LPBOREN$OFF 0 0 ABS 0
__Lspace_3 0 0 ABS 0
__size_of_main 0 0 ABS 0
__end_of_ES_Timer_InitTimer 7CA 0 CODE 0
__size_of_uitoa 0 0 ABS 0
__end_of_fputc 749 0 CODE 0
_ES_Timer_InitTimer 78B 0 CODE 0
__end_of_ES_Timer_Tick_Resp 55D 0 CODE 0
__CFG_BORV$LO 0 0 ABS 0
__size_of_ES_PostToService 0 0 ABS 0
ES_EnQueueLIFO@Event2Add 59 0 BANK0 1
__HidataBANK0 0 0 ABS 0
ES_GetMSBitSet@ReturnVal 53 0 BANK0 1
__LidataBANK0 0 0 ABS 0
__Hstringtext10 0 0 ABS 0
__Lstringtext10 0 0 ABS 0
__pidataBANK0 7FF 0 CODE 0
__pstringtext10 10D2 0 STRCODE 0
__Hstringtext4 0 0 ABS 0
__Lstringtext4 0 0 ABS 0
__pstringtext4 12A6 0 STRCODE 0
__end_of__HW_PIC15356Init D40 0 CODE 0
clear_ram0 D40 0 CODE 0
__CFG_SAFEN$OFF 0 0 ABS 0
__size_of___lwdiv 0 0 ABS 0
__end_of_puts E0A 0 CODE 0
__INTCON_temp 39 0 BANK0 1
__Hstringtext13 0 0 ABS 0
__Lstringtext13 0 0 ABS 0
__HbssBANK0 0 0 ABS 0
__LbssBANK0 0 0 ABS 0
__pstringtext13 113D 0 STRCODE 0
__Hbank10 0 0 ABS 0
__pbssBANK0 20 0 BANK0 1
__Lbank10 0 0 ABS 0
__Hbank20 0 0 ABS 0
__Lbank20 0 0 ABS 0
Check4Keystroke@ThisEvent 5A 0 BANK0 1
__Hbank30 0 0 BANK30 1
__Hbank11 0 0 ABS 0
__Lbank30 0 0 BANK30 1
__Lbank11 0 0 ABS 0
__HW_SysTickIntHandler D59 0 CODE 0
ES_GetMSBitSet@Nybble2Test 54 0 BANK0 1
__Hbank40 0 0 BANK40 1
__Hbank21 0 0 ABS 0
__Lbank40 0 0 BANK40 1
__Lbank21 0 0 ABS 0
RunTestHarnessService0@ReturnEvent E5 0 BANK1 1
__Hbank50 0 0 BANK50 1
__Hbank31 0 0 BANK31 1
__Hbank12 0 0 ABS 0
__Lbank50 0 0 BANK50 1
__Lbank31 0 0 BANK31 1
__Lbank12 0 0 ABS 0
__CFG_WRTAPP$OFF 0 0 ABS 0
__Hbank60 0 0 BANK60 1
__Hbank41 0 0 BANK41 1
__Hbank22 0 0 ABS 0
__size_of__HW_ConsoleInit 0 0 ABS 0
__Lbank60 0 0 BANK60 1
__Lbank41 0 0 BANK41 1
__Lbank22 0 0 ABS 0
_BitNum2SetMask 11A1 0 STRCODE 0
__Hbank51 0 0 BANK51 1
__Hbank32 0 0 BANK32 1
__Hbank13 0 0 ABS 0
ES_Timer_Init@Rate 53 0 BANK0 1
__Lbank51 0 0 BANK51 1
__Lbank32 0 0 BANK32 1
__Lbank13 0 0 ABS 0
__Hbank61 0 0 BANK61 1
__Hbank42 0 0 BANK42 1
__Hbank23 0 0 ABS 0
__Lbank61 0 0 BANK61 1
__Lbank42 0 0 BANK42 1
__Lbank23 0 0 ABS 0
__end_of_ES_Run 645 0 CODE 0
__Hbank52 0 0 BANK52 1
__Hbank33 0 0 BANK33 1
__Hbank14 0 0 ABS 0
__Lbank52 0 0 BANK52 1
__Lbank33 0 0 BANK33 1
__Lbank14 0 0 ABS 0
__size_of_ES_GetMSBitSet 0 0 ABS 0
__Hbank62 0 0 BANK62 1
__Hbank43 0 0 BANK43 1
__Hbank24 0 0 ABS 0
__Lbank62 0 0 BANK62 1
__Lbank43 0 0 BANK43 1
__Lbank24 0 0 ABS 0
__Hstringtext16 0 0 ABS 0
__ptext10 DEB 0 CODE 0
__Lstringtext16 0 0 ABS 0
__Hbank53 0 0 BANK53 1
__Hbank34 0 0 BANK34 1
__Hbank15 0 0 ABS 0
__Lbank53 0 0 BANK53 1
__Lbank34 0 0 BANK34 1
__Lbank15 0 0 ABS 0
__ptext20 E0A 0 CODE 0
__Hbank63 0 0 BANK63 1
__Hbank44 0 0 BANK44 1
__pstringtext16 11DE 0 STRCODE 0
__Hbank25 0 0 ABS 0
__Lbank63 0 0 BANK63 1
__Lbank44 0 0 BANK44 1
__Lbank25 0 0 ABS 0
_ES_PostToService F4E 0 CODE 0
__ptext11 EEA 0 CODE 0
__ptext30 D72 0 CODE 0
__Hbank54 0 0 BANK54 1
__Hbank35 0 0 BANK35 1
__Hbank16 0 0 ABS 0
__Lbank54 0 0 BANK54 1
__Lbank35 0 0 BANK35 1
__Lbank16 0 0 ABS 0
__ptext21 E4D 0 CODE 0
__ptext40 D9F 0 CODE 0
__Hbank45 0 0 BANK45 1
__Hbank26 0 0 BANK26 1
__Lbank45 0 0 BANK45 1
__Lbank26 0 0 BANK26 1
__ptext12 700 0 CODE 0
__ptext31 F88 0 CODE 0
__Hbank55 0 0 BANK55 1
__Hbank36 0 0 BANK36 1
__Hbank17 0 0 ABS 0
__Lbank55 0 0 BANK55 1
__Lbank36 0 0 BANK36 1
__Lbank17 0 0 ABS 0
__HbssBANK2 0 0 ABS 0
__ptext22 34 0 CODE 0
__LbssBANK2 0 0 ABS 0
__Hbank46 0 0 BANK46 1
__Hbank27 0 0 BANK27 1
__Lbank46 0 0 BANK46 1
__Lbank27 0 0 BANK27 1
__ptext13 D38 0 CODE 0
__ptext32 45E 0 CODE 0
__Hbank56 0 0 BANK56 1
__Hbank37 0 0 BANK37 1
__Hbank18 0 0 ABS 0
__pbssBANK2 120 0 BANK2 1
__Lbank56 0 0 BANK56 1
__Lbank37 0 0 BANK37 1
__Lbank18 0 0 ABS 0
__ptext23 3CA 0 CODE 0
__ptext42 D59 0 CODE 0
__Hbank47 0 0 BANK47 1
__Hbank28 0 0 BANK28 1
__Lbank47 0 0 BANK47 1
__Lbank28 0 0 BANK28 1
__ptext14 D34 0 CODE 0
__ptext33 EBF 0 CODE 0
__Hbank57 0 0 BANK57 1
__Hbank38 0 0 BANK38 1
__Hbank19 0 0 ABS 0
__Lbank57 0 0 BANK57 1
__Lbank38 0 0 BANK38 1
__Lbank19 0 0 ABS 0
__end_of_Timer2PostFunc 11A1 0 STRCODE 0
__size_of_fputs 0 0 ABS 0
__ptext24 7CA 0 CODE 0
__Hbank48 0 0 BANK48 1
__Hbank29 0 0 BANK29 1
__Lbank48 0 0 BANK48 1
__Lbank29 0 0 BANK29 1
__size_of_InitTestHarnessService0 0 0 ABS 0
__ptext15 78B 0 CODE 0
__ptext34 2 0 CODE 0
__Hbank58 0 0 BANK58 1
__Hbank39 0 0 BANK39 1
__Lbank58 0 0 BANK58 1
__Lbank39 0 0 BANK39 1
__ptext25 FC3 0 CODE 0
__Hbank49 0 0 BANK49 1
__Lbank49 0 0 BANK49 1
_TMR_TimerArray 120 0 BANK2 1
__Hstringtext19 0 0 ABS 0
__Lstringtext19 0 0 ABS 0
__ptext16 E97 0 CODE 0
__ptext35 F4E 0 CODE 0
__Hbank59 0 0 BANK59 1
__Lbank59 0 0 BANK59 1
___lbmod@divisor 71 0 COMMON 1
__ptext26 D4F 0 CODE 0
__pstringtext19 122B 0 STRCODE 0
__ptext17 F15 0 CODE 0
__ptext36 645 0 CODE 0
___awmod@divisor 51 0 BANK0 1
__end_of___lwmod 7FF 0 CODE 0
__ptext27 3 0 CODE 0
___lwmod@divisor 51 0 BANK0 1
_ANSELCbits 1F4E 0 ABS 0
__ptext18 55D 0 CODE 0
__ptext37 6AC 0 CODE 0
_RC1STAbits 11D 0 ABS 0
_TX1STAbits 11E 0 ABS 0
__ptext28 E2A 0 CODE 0
__HbssCOMMON 0 0 ABS 0
__LbssCOMMON 0 0 ABS 0
__ptext19 332 0 CODE 0
__ptext38 DB1 0 CODE 0
ES_Run@ThisEvent 4E 0 BANK0 1
__pbssCOMMON 72 0 COMMON 1
__ptext29 DCC 0 CODE 0
_ES_PostToServiceLIFO F15 0 CODE 0
ES_Timer_Tick_Resp@NextTimer2Process 72 0 COMMON 1
__ptext39 D46 0 CODE 0
__Hend_init 18 0 CODE 0
__Lend_init 16 0 CODE 0
_NCO1INCH 590 0 ABS 0
__end_of_Stop_PushToTalk D3C 0 CODE 0
___lwdiv@divisor 51 0 BANK0 1
__CFG_CSWEN$OFF 0 0 ABS 0
__size_of_PostTestHarnessService0 0 0 ABS 0
ES_EnQueueLIFO@pBlock 57 0 BANK0 1
_NCO1INCL 58F 0 ABS 0
_BlinkLED 3 0 CODE 0
__size_of_InitPWM 0 0 ABS 0
__size_of___wmul 0 0 ABS 0
__end_of_uitoa 45E 0 CODE 0
__Hreset_vec 2 0 CODE 0
__Lreset_vec 0 0 CODE 0
_Timer2PostFunc 1181 0 STRCODE 0
__Hstringtext20 0 0 ABS 0
__Lstringtext20 0 0 ABS 0
__pstringtext20 1251 0 STRCODE 0
__end_of_ServDescList 12AA 0 STRCODE 0
__Hstringtext5 0 0 ABS 0
__Lstringtext5 0 0 ABS 0
__pstringtext5 12AE 0 STRCODE 0
ES_RecallEvents@RecalledEvent 67 0 BANK0 1
__size_of__HW_Timer_Init 0 0 ABS 0
__CFG_BBEN$OFF 0 0 ABS 0
_T2CLKCON 290 0 ABS 0
_NCO1INCU 591 0 ABS 0
intlevel0 0 0 ENTRY 0
__end_of__HW_SysTickIntHandler D65 0 CODE 0
__CFG_WDTE$OFF 0 0 ABS 0
__Hstringtext23 0 0 ABS 0
__Lstringtext23 0 0 ABS 0
ES_Initialize@NewRate 5B 0 BANK0 1
intlevel1 0 0 ENTRY 0
__pstringtext23 1278 0 STRCODE 0
DB_printf@Format 60 0 BANK0 1
__CFG_WRTB$OFF 0 0 ABS 0
ES_EnQueueLIFO@pThisQueue 5E 0 BANK0 1
intlevel2 0 0 ENTRY 0
intlevel3 0 0 ENTRY 0
__CFG_WRTC$OFF 0 0 ABS 0
intlevel4 0 0 ENTRY 0
intlevel5 0 0 ENTRY 0
__size_of_ES_CheckUserEvents 0 0 ABS 0
ES_PostToServiceLIFO@TheEvent 60 0 BANK0 1
ES_DeQueue@pThisQueue 5E 0 BANK0 1
?_RunTestHarnessService0 6A 0 BANK0 1
__Hstringtext26 0 0 ABS 0
__end_of_ES_InitQueue DCC 0 CODE 0
__Lstringtext26 0 0 ABS 0
_InitTestHarnessService0 EBF 0 CODE 0
ES_InitQueue@pBlock 51 0 BANK0 1
_Start_PushToTalk D34 0 CODE 0
_PostTestHarnessService0 D65 0 CODE 0
__pstringtext26 1293 0 STRCODE 0
__HW_PIC15356Init D3C 0 CODE 0
ES_Timer_Tick_Resp@NeedsProcessing 31 0 BANK0 1
__size_of___lwmod 0 0 ABS 0
_ES_Initialize 45E 0 CODE 0
__HcstackCOMMON 0 0 ABS 0
__LcstackCOMMON 0 0 ABS 0
ES_RecallEvents@pBlock 64 0 BANK0 1
__pcstackCOMMON 70 0 COMMON 1
__end_of_RunTestHarnessService0 291 0 CODE 0
__CFG_ZCD$OFF 0 0 ABS 0
__end_of___wmul E2A 0 CODE 0
start_initialization 18 0 CODE 0
__Hstringtext29 0 0 ABS 0
__Lstringtext29 0 0 ABS 0
_Check4Keystroke DCC 0 CODE 0
__pstringtext29 12AA 0 STRCODE 0
___lwdiv@quotient 56 0 BANK0 1
_SysTickCounter 35 0 BANK0 1
__Hmaintext 0 0 ABS 0
__Lmaintext 0 0 ABS 0
__HW_Timer_Init D9F 0 CODE 0
__pmaintext 291 0 CODE 0
__CFG_MCLRE$ON 0 0 ABS 0
__end_of___lbmod E71 0 CODE 0
__size_of___awmod 0 0 ABS 0
__end_of_ES_Initialize 4DE 0 CODE 0
__initialization 18 0 CODE 0
__size_of_myIsr 0 0 ABS 0
___lbmod@dividend 52 0 BANK0 1
___awmod@dividend 53 0 BANK0 1
___lbmod@counter 53 0 BANK0 1
___lwmod@dividend 53 0 BANK0 1
___awmod@counter 55 0 BANK0 1
___wmul@product 55 0 BANK0 1
___lwmod@counter 71 0 COMMON 1
__CFG_CP$OFF 0 0 ABS 0
__Hstringtext30 0 0 ABS 0
__Hstringtext11 0 0 ABS 0
__Lstringtext30 0 0 ABS 0
__Lstringtext11 0 0 ABS 0
__CFG_FCMEN$ON 0 0 ABS 0
__pstringtext11 10F7 0 STRCODE 0
__pstringtext30 0 0 STRCODE 0
__Hstringtext6 0 0 ABS 0
__Lstringtext6 0 0 ABS 0
__pstringtext6 1000 0 STRCODE 0
___lbmod@rem 54 0 BANK0 1
__HW_Timer_Init@Rate 51 0 BANK0 1
ES_DeQueue@pBlock 57 0 BANK0 1
ES_CheckUserEvents@i 5D 0 BANK0 1
__size_of_ES_PostToServiceLIFO 0 0 ABS 0
%segments
stack 20D2 27EF STACK 20D2 2
reset_vec 0 5 CODE 0 0
intentry 8 FFF CODE 8 0
config 1000E 10017 CONFIG 1000E 0
cstackCOMMON 70 72 COMMON 70 1
cstackBANK1 A0 E8 BANK1 A0 1
bssBANK2 120 151 BANK2 120 1
bssBANK0 20 6F BANK0 20 1
text25 1F86 1FFF CODE 1F86 0
text31 1F10 1F85 CODE 1F10 0
text35 1E9C 1F0F CODE 1E9C 0
stringtext6 2000 255F STRCODE 2000 0
text17 1E2A 1E9B CODE 1E2A 0
text11 1DD4 1E29 CODE 1DD4 0
text33 1D7E 1DD3 CODE 1D7E 0
text16 1D2E 1D7D CODE 1D2E 0
text3 1CE2 1D2D CODE 1CE2 0
text21 1C9A 1CE1 CODE 1C9A 0
text28 1C54 1C99 CODE 1C54 0
text20 1C14 1C53 CODE 1C14 0
text10 1BD6 1C13 CODE 1BD6 0
text29 1B98 1BD5 CODE 1B98 0
text38 1B62 1B97 CODE 1B62 0
text40 1B3E 1B61 CODE 1B3E 0
text2 1B20 1B3D CODE 1B20 0
text5 1B02 1B1F CODE 1B02 0
text30 1AE4 1B01 CODE 1AE4 0
text7 1ACA 1AE3 CODE 1ACA 0
text42 1AB2 1AC9 CODE 1AB2 0
text26 1A9E 1AB1 CODE 1A9E 0
text39 1A8C 1A9D CODE 1A8C 0
clrtext 1A80 1A8B CODE 1A80 0
text1 1A78 1A7F CODE 1A78 0
text13 1A70 1A77 CODE 1A70 0
text14 1A68 1A6F CODE 1A68 0
text27 6 7 CODE 6 0
%locals
dist/default/production\startup.o
dist/default/production\startup.s
90 0 0 CODE 0
95 0 0 CODE 0
65 0 0 ENTRY 0
66 0 0 ENTRY 0
67 0 0 ENTRY 0
68 0 0 ENTRY 0
69 0 0 ENTRY 0
70 0 0 ENTRY 0
99 16 0 CODE 0
121 16 0 CODE 0
dist/default/production\PICing_and_Screaming.production.o
dist/default/production\PICing_and_Screaming.production.s
10199 18 0 CODE 0
10202 18 0 CODE 0
10273 18 0 CODE 0
10274 1B 0 CODE 0
10291 1C 0 CODE 0
10295 1D 0 CODE 0
10296 1E 0 CODE 0
10297 1F 0 CODE 0
10298 20 0 CODE 0
10299 21 0 CODE 0
10300 22 0 CODE 0
10304 25 0 CODE 0
10305 26 0 CODE 0
10306 27 0 CODE 0
10307 28 0 CODE 0
10308 29 0 CODE 0
10309 2A 0 CODE 0
10315 2D 0 CODE 0
10317 2D 0 CODE 0
10321 2E 0 CODE 0
10322 2F 0 CODE 0
10323 30 0 CODE 0
10324 31 0 CODE 0
10325 32 0 CODE 0
10280 D40 0 CODE 0
10281 D40 0 CODE 0
10282 D41 0 CODE 0
10283 D41 0 CODE 0
10284 D42 0 CODE 0
10285 D43 0 CODE 0
10286 D44 0 CODE 0
10287 D45 0 CODE 0
ProjectSource/main.c
27 291 0 CODE 0
31 291 0 CODE 0
32 294 0 CODE 0
36 29C 0 CODE 0
37 2A4 0 CODE 0
38 2AC 0 CODE 0
39 2BC 0 CODE 0
40 2C4 0 CODE 0
41 2CC 0 CODE 0
42 2D4 0 CODE 0
45 2DC 0 CODE 0
48 2DF 0 CODE 0
49 2EB 0 CODE 0
51 2F0 0 CODE 0
58 2F8 0 CODE 0
60 300 0 CODE 0
63 301 0 CODE 0
65 309 0 CODE 0
68 30A 0 CODE 0
70 312 0 CODE 0
73 313 0 CODE 0
75 31B 0 CODE 0
76 31C 0 CODE 0
FrameworkSource/ES_Port.c
121 D3C 0 CODE 0
123 D3C 0 CODE 0
131 D3F 0 CODE 0
262 D90 0 CODE 0
265 D90 0 CODE 0
266 D95 0 CODE 0
272 D97 0 CODE 0
274 D9A 0 CODE 0
275 D9B 0 CODE 0
281 D9C 0 CODE 0
283 D9D 0 CODE 0
289 D9E 0 CODE 0
ProjectSource/ServoControl.c
69 E71 0 CODE 0
72 E71 0 CODE 0
74 E73 0 CODE 0
76 E76 0 CODE 0
78 E78 0 CODE 0
80 E7A 0 CODE 0
83 E7B 0 CODE 0
84 E7E 0 CODE 0
85 E80 0 CODE 0
87 E82 0 CODE 0
88 E84 0 CODE 0
89 E85 0 CODE 0
90 E86 0 CODE 0
91 E87 0 CODE 0
93 E88 0 CODE 0
94 E8A 0 CODE 0
97 E8B 0 CODE 0
99 E8D 0 CODE 0
100 E8F 0 CODE 0
101 E96 0 CODE 0
FrameworkSource/ES_Framework.c
300 5D3 0 CODE 0
306 5D3 0 CODE 0
310 5D3 0 CODE 0
312 5D4 0 CODE 0
313 5DF 0 CODE 0
315 5FA 0 CODE 0
320 610 0 CODE 0
323 62F 0 CODE 0
310 631 0 CODE 0
334 640 0 CODE 0
339 644 0 CODE 0
FrameworkSource/ES_Port.c
236 D81 0 CODE 0
238 D81 0 CODE 0
241 D82 0 CODE 0
242 D85 0 CODE 0
238 D88 0 CODE 0
244 D8E 0 CODE 0
245 D8F 0 CODE 0
FrameworkSource/ES_Timers.c
292 4DE 0 CODE 0
298 4DE 0 CODE 0
301 4E5 0 CODE 0
305 4E9 0 CODE 0
307 4F3 0 CODE 0
309 504 0 CODE 0
310 509 0 CODE 0
312 510 0 CODE 0
314 52A 0 CODE 0
317 540 0 CODE 0
318 556 0 CODE 0
320 55C 0 CODE 0
ProjectSource/TestHarnessService0.c
135 D65 0 CODE 0
137 D65 0 CODE 0
138 D70 0 CODE 0
FrameworkSource/ES_LookupTables.c
79 749 0 CODE 0
83 749 0 CODE 0
86 74E 0 CODE 0
90 752 0 CODE 0
93 769 0 CODE 0
96 76E 0 CODE 0
98 780 0 CODE 0
100 781 0 CODE 0
101 789 0 CODE 0
102 78A 0 CODE 0
ProjectSource/TestHarnessService0.c
157 19F 0 CODE 0
160 19F 0 CODE 0
166 1A1 0 CODE 0
170 1A2 0 CODE 0
171 1AA 0 CODE 0
172 1B2 0 CODE 0
174 1C1 0 CODE 0
177 1C2 0 CODE 0
178 1CA 0 CODE 0
180 1DD 0 CODE 0
182 1E0 0 CODE 0
185 1E1 0 CODE 0
187 1E8 0 CODE 0
190 1E9 0 CODE 0
192 1F7 0 CODE 0
194 1FF 0 CODE 0
195 20A 0 CODE 0
197 21C 0 CODE 0
200 224 0 CODE 0
202 22C 0 CODE 0
203 230 0 CODE 0
205 23A 0 CODE 0
207 248 0 CODE 0
208 250 0 CODE 0
211 256 0 CODE 0
216 256 0 CODE 0
218 25E 0 CODE 0
220 261 0 CODE 0
222 269 0 CODE 0
229 26D 0 CODE 0
231 284 0 CODE 0
232 290 0 CODE 0
C:\Program Files (x86)\Microchip\xc8\v2.10\pic\sources\c99\common\puts.c
3 DEB 0 CODE 0
7 DEB 0 CODE 0
10 E09 0 CODE 0
C:\Program Files (x86)\Microchip\xc8\v2.10\pic\sources\c99\common\nf_fputs.c
8 EEA 0 CODE 0
13 EEA 0 CODE 0
14 EED 0 CODE 0
15 EEE 0 CODE 0
16 EFC 0 CODE 0
14 F01 0 CODE 0
18 F10 0 CODE 0
19 F14 0 CODE 0
C:\Program Files (x86)\Microchip\xc8\v2.10\pic\sources\c99\common\nf_fputc.c
8 700 0 CODE 0
12 700 0 CODE 0
13 70B 0 CODE 0
14 70F 0 CODE 0
15 710 0 CODE 0
17 737 0 CODE 0
20 740 0 CODE 0
21 748 0 CODE 0
ProjectSource/ServoControl.c
64 D38 0 CODE 0
66 D38 0 CODE 0
67 D3B 0 CODE 0
59 D34 0 CODE 0
61 D34 0 CODE 0
62 D37 0 CODE 0
FrameworkSource/ES_Timers.c
236 78B 0 CODE 0
239 78C 0 CODE 0
247 7AD 0 CODE 0
248 7B6 0 CODE 0
250 7C9 0 CODE 0
FrameworkSource/ES_DeferRecall.c
56 E97 0 CODE 0
59 E99 0 CODE 0
63 E9A 0 CODE 0
64 EA5 0 CODE 0
66 EAB 0 CODE 0
67 EB5 0 CODE 0
69 EB8 0 CODE 0
70 EBD 0 CODE 0
71 EBE 0 CODE 0
FrameworkSource/ES_Framework.c
425 F15 0 CODE 0
427 F17 0 CODE 0
431 F39 0 CODE 0
438 F4D 0 CODE 0
FrameworkSource/ES_Queue.c
124 55D 0 CODE 0
127 55D 0 CODE 0
129 562 0 CODE 0
131 575 0 CODE 0
133 57A 0 CODE 0
135 583 0 CODE 0
137 58D 0 CODE 0
138 5A0 0 CODE 0
141 5A1 0 CODE 0
143 5A8 0 CODE 0
144 5CD 0 CODE 0
145 5CF 0 CODE 0
149 5D1 0 CODE 0
151 5D2 0 CODE 0
169 332 0 CODE 0
174 332 0 CODE 0
175 337 0 CODE 0
177 341 0 CODE 0
178 346 0 CODE 0
180 374 0 CODE 0
182 37D 0 CODE 0
184 390 0 CODE 0
187 3AF 0 CODE 0
188 3BA 0 CODE 0
189 3BC 0 CODE 0
192 3BD 0 CODE 0
193 3C1 0 CODE 0
194 3C7 0 CODE 0
196 3C8 0 CODE 0
197 3C9 0 CODE 0
C:\Program Files (x86)\Microchip\xc8\v2.10\pic\sources\c99\common\Umul16.c
15 E0A 0 CODE 0
43 E0A 0 CODE 0
45 E0D 0 CODE 0
46 E11 0 CODE 0
47 E15 0 CODE 0
48 E1A 0 CODE 0
49 E1F 0 CODE 0
52 E25 0 CODE 0
53 E29 0 CODE 0
C:\Program Files (x86)\Microchip\xc8\v2.10\pic\sources\c99\common\lbmod.c
4 E4D 0 CODE 0
9 E4F 0 CODE 0
10 E53 0 CODE 0
12 E54 0 CODE 0
13 E5F 0 CODE 0
14 E61 0 CODE 0
15 E67 0 CODE 0
16 E69 0 CODE 0
17 E6F 0 CODE 0
18 E70 0 CODE 0
ProjectSource/dbprintf.c
76 34 0 CODE 0
85 34 0 CODE 0
86 39 0 CODE 0
87 3D 0 CODE 0
88 41 0 CODE 0
89 42 0 CODE 0
90 4C 0 CODE 0
96 63 0 CODE 0
97 6F 0 CODE 0
99 73 0 CODE 0
100 7E 0 CODE 0
102 83 0 CODE 0
103 92 0 CODE 0
105 93 0 CODE 0
108 9F 0 CODE 0
109 AE 0 CODE 0
111 AF 0 CODE 0
112 BB 0 CODE 0
113 CA 0 CODE 0
115 CB 0 CODE 0
116 DE 0 CODE 0
118 DF 0 CODE 0
119 EB 0 CODE 0
120 F1 0 CODE 0
122 F6 0 CODE 0
121 109 0 CODE 0
125 113 0 CODE 0
128 11C 0 CODE 0
129 128 0 CODE 0
130 133 0 CODE 0
132 13B 0 CODE 0
133 15F 0 CODE 0
88 164 0 CODE 0
135 16E 0 CODE 0
138 173 0 CODE 0
140 178 0 CODE 0
141 181 0 CODE 0
144 189 0 CODE 0
145 18D 0 CODE 0
147 191 0 CODE 0
149 19E 0 CODE 0
151 3CA 0 CODE 0
156 3CC 0 CODE 0
157 3CD 0 CODE 0
159 3D3 0 CODE 0
160 3DD 0 CODE 0
163 3E5 0 CODE 0
164 3E9 0 CODE 0
166 3EA 0 CODE 0
167 3FA 0 CODE 0
168 403 0 CODE 0
170 40E 0 CODE 0
171 415 0 CODE 0
172 426 0 CODE 0
164 436 0 CODE 0
176 43D 0 CODE 0
177 44E 0 CODE 0
174 455 0 CODE 0
179 45D 0 CODE 0
C:\Program Files (x86)\Microchip\xc8\v2.10\pic\sources\c99\common\lwmod.c
5 7CA 0 CODE 0
12 7CA 0 CODE 0
13 7D1 0 CODE 0
14 7D3 0 CODE 0
15 7D4 0 CODE 0
16 7D9 0 CODE 0
14 7DD 0 CODE 0
19 7E1 0 CODE 0
20 7EB 0 CODE 0
21 7EF 0 CODE 0
22 7F4 0 CODE 0
24 7FA 0 CODE 0
25 7FE 0 CODE 0
C:\Program Files (x86)\Microchip\xc8\v2.10\pic\sources\c99\common\lwdiv.c
5 FC3 0 CODE 0
13 FC3 0 CODE 0
14 FC6 0 CODE 0
15 FCC 0 CODE 0
16 FCE 0 CODE 0
17 FCF 0 CODE 0
18 FD4 0 CODE 0
16 FD8 0 CODE 0
21 FDC 0 CODE 0
22 FE1 0 CODE 0
23 FEB 0 CODE 0
24 FEF 0 CODE 0
26 FF0 0 CODE 0
27 FF5 0 CODE 0
29 FFB 0 CODE 0
30 FFF 0 CODE 0
FrameworkSource/ES_Port.c
305 D4F 0 CODE 0
306 D50 0 CODE 0
307 D50 0 CODE 0
306 D50 0 CODE 0
308 D55 0 CODE 0
309 D58 0 CODE 0
ProjectSource/TestHarnessService0.c
242 3 0 CODE 0
246 3 0 CODE 0
FrameworkSource/ES_CheckEvents.c
47 E2A 0 CODE 0
51 E2A 0 CODE 0
53 E2C 0 CODE 0
57 E42 0 CODE 0
66 E4C 0 CODE 0
ProjectSource/EventCheckers.c
109 DCC 0 CODE 0
111 DCC 0 CODE 0
114 DD1 0 CODE 0
115 DD6 0 CODE 0
116 DDE 0 CODE 0
117 DE7 0 CODE 0
119 DE9 0 CODE 0
120 DEA 0 CODE 0
FrameworkSource/ES_Port.c
325 D72 0 CODE 0
326 D72 0 CODE 0
327 D72 0 CODE 0
326 D72 0 CODE 0
328 D77 0 CODE 0
329 D80 0 CODE 0
FrameworkSource/ES_Framework.c
355 F88 0 CODE 0
359 F88 0 CODE 0
361 F89 0 CODE 0
367 FA5 0 CODE 0
369 FB9 0 CODE 0
378 FC2 0 CODE 0
256 45E 0 CODE 0
259 45E 0 CODE 0
261 466 0 CODE 0
263 467 0 CODE 0
266 492 0 CODE 0
269 494 0 CODE 0
271 4B5 0 CODE 0
273 4D1 0 CODE 0
275 4D3 0 CODE 0
279 4DC 0 CODE 0
280 4DD 0 CODE 0
ProjectSource/TestHarnessService0.c
91 EBF 0 CODE 0
95 EBF 0 CODE 0
100 EC4 0 CODE 0
102 ECF 0 CODE 0
107 ED2 0 CODE 0
108 ED7 0 CODE 0
110 EE6 0 CODE 0
114 EE8 0 CODE 0
116 EE9 0 CODE 0
238 2 0 CODE 0
240 2 0 CODE 0
FrameworkSource/ES_Framework.c
395 F4E 0 CODE 0
397 F50 0 CODE 0
401 F6F 0 CODE 0
402 F83 0 CODE 0
406 F85 0 CODE 0
408 F86 0 CODE 0
FrameworkSource/ES_Queue.c
85 645 0 CODE 0
88 647 0 CODE 0
90 649 0 CODE 0
93 65F 0 CODE 0
94 663 0 CODE 0
96 69C 0 CODE 0
97 6A5 0 CODE 0
99 6A7 0 CODE 0
103 6A9 0 CODE 0
105 6AA 0 CODE 0
C:\Program Files (x86)\Microchip\xc8\v2.10\pic\sources\c99\common\awmod.c
5 6AC 0 CODE 0
12 6AC 0 CODE 0
13 6AE 0 CODE 0
14 6B2 0 CODE 0
15 6B7 0 CODE 0
17 6B9 0 CODE 0
18 6BD 0 CODE 0
19 6C2 0 CODE 0
20 6C8 0 CODE 0
21 6CA 0 CODE 0
22 6CB 0 CODE 0
23 6D0 0 CODE 0
21 6D4 0 CODE 0
26 6D8 0 CODE 0
27 6E2 0 CODE 0
28 6E6 0 CODE 0
29 6EB 0 CODE 0
31 6F1 0 CODE 0
32 6F6 0 CODE 0
33 6FB 0 CODE 0
34 6FF 0 CODE 0
FrameworkSource/ES_Queue.c
58 DB1 0 CODE 0
62 DB1 0 CODE 0
64 DB6 0 CODE 0
65 DBF 0 CODE 0
66 DC5 0 CODE 0
68 DCB 0 CODE 0
FrameworkSource/ES_Timers.c
131 D46 0 CODE 0
134 D46 0 CODE 0
135 D4E 0 CODE 0
FrameworkSource/ES_Port.c
148 D9F 0 CODE 0
151 D9F 0 CODE 0
154 DA2 0 CODE 0
155 DA3 0 CODE 0
156 DA7 0 CODE 0
159 DAB 0 CODE 0
162 DAC 0 CODE 0
163 DAE 0 CODE 0
164 DAF 0 CODE 0
166 DB0 0 CODE 0
ProjectSource/ISR.c
19 4 0 CODE 0
21 B 0 CODE 0
22 10 0 CODE 0
24 13 0 CODE 0
FrameworkSource/ES_Port.c
185 D59 0 CODE 0
187 D59 0 CODE 0
188 D5B 0 CODE 0
189 D60 0 CODE 0
193 D64 0 CODE 0
